Suite/Test/Step Name,Browser,Description,Tag,Start time,End time,Duration,Status
RM_Banca de KM,,,,2019-11-28 14:59:06,2019-11-28 15:03:51,4m - 45.304s,INCOMPLETE
,,,,,,,
Test Cases/RM Full Regression Stage/Pacient - T162249 (banca de kilometri),,"Check ""Banca de kilometri"" screen for functionality",,2019-11-28 14:59:06,2019-11-28 15:00:31,1m - 25.229s,PASSED
"startApplication(""C:\Users\Catalin\Desktop\app-regina-maria-v480-debug.apk"", false)",,,,2019-11-28 14:59:07,2019-11-28 14:59:48,41.141s,PASSED
"tap(findTestObject(""Application/RM/T162249/android.widget.ImageButton0""), 0)",,,,2019-11-28 14:59:48,2019-11-28 14:59:51,3.085s,PASSED
"setText(findTestObject(""Application/RM/T162249/android.widget.EditText0""), ""catalin.it86@gmail.com"", 0)",,,,2019-11-28 14:59:51,2019-11-28 14:59:52,1.460s,PASSED
"setText(findTestObject(""Application/RM/T162249/android.widget.EditText0 (1)""), ""123456.Abc"", 0)",,,,2019-11-28 14:59:52,2019-11-28 14:59:54,1.484s,PASSED
"tap(findTestObject(""Application/RM/T162249/android.widget.Button0 - Intra in cont""), 0)",,,,2019-11-28 14:59:54,2019-11-28 14:59:57,3.147s,PASSED
"tap(findTestObject(""Application/RM/T162249/android.widget.ImageButton0 (1)""), 0)",,,,2019-11-28 14:59:57,2019-11-28 15:00:03,6.331s,PASSED
"tap(findTestObject(""Application/RM/T162249/android.widget.TextView0 - Banca de km""), 0)",,,,2019-11-28 15:00:03,2019-11-28 15:00:06,3.155s,PASSED
"tap(findTestObject(""Application/RM/T162249/android.widget.Button0 - Vezi cati km ai in cont""), 0)",,,,2019-11-28 15:00:06,2019-11-28 15:00:09,2.521s,PASSED
"tap(findTestObject(""Application/RM/T162249/android.widget.ImageButton0 (2)""), 0)",,,,2019-11-28 15:00:09,2019-11-28 15:00:11,1.824s,PASSED
"tap(findTestObject(""Application/RM/T162249/android.widget.Button0 - Continua""), 0)",,,,2019-11-28 15:00:11,2019-11-28 15:00:14,3.619s,PASSED
"tap(findTestObject(""Application/RM/T162249/android.widget.ImageButton0 (3)""), 0)",,,,2019-11-28 15:00:14,2019-11-28 15:00:16,1.595s,PASSED
"tap(findTestObject(""Application/RM/T162249/android.widget.Button0 - Opreste""), 0)",,,,2019-11-28 15:00:16,2019-11-28 15:00:18,1.601s,PASSED
"tap(findTestObject(""Application/RM/T162249/android.widget.TextView0 - Vezi km parcursi""), 0)",,,,2019-11-28 15:00:18,2019-11-28 15:00:20,2.052s,PASSED
"tap(findTestObject(""Application/RM/T162249/android.widget.ImageButton0 (4)""), 0)",,,,2019-11-28 15:00:20,2019-11-28 15:00:22,2.184s,PASSED
"tap(findTestObject(""Application/RM/T162249/android.widget.Button0 - Converteste km in servicii""), 0)",,,,2019-11-28 15:00:22,2019-11-28 15:00:24,2.522s,PASSED
"tap(findTestObject(""Application/RM/T162249/android.widget.ImageButton0 (4)""), 0)",,,,2019-11-28 15:00:24,2019-11-28 15:00:27,2.384s,PASSED
"tap(findTestObject(""Application/RM/T162249/android.widget.Button0 - Sincronizeaza cu alte aplicatii""), 0)",,,,2019-11-28 15:00:27,2019-11-28 15:00:29,1.811s,PASSED
"tap(findTestObject(""Application/RM/T162249/android.widget.ImageButton0 (4)""), 0)",,,,2019-11-28 15:00:29,2019-11-28 15:00:31,2.173s,PASSED
closeApplication(),,,,2019-11-28 15:00:31,2019-11-28 15:00:31,0.712s,PASSED
,,,,,,,
Test Cases/RM Full Regression Stage/Pacient - T162250 (banca de kilometri),,"Check ""Vezi kilometri parcursi"" screen for functionality",,2019-11-28 15:00:31,2019-11-28 15:01:43,1m - 12.011s,FAILED
"startApplication(""C:\Users\Catalin\Desktop\app-regina-maria-v480-debug.apk"", false)",,,,2019-11-28 15:00:32,2019-11-28 15:01:03,31.160s,PASSED
"tap(findTestObject(""Application/RM/T162250/android.widget.TextView0 - Banca de km""), 0)",,,,2019-11-28 15:01:03,2019-11-28 15:01:11,8.186s,PASSED
"tap(findTestObject(""Application/RM/T162250/android.widget.Button0 - Vezi cati km ai in cont""), 0)",,,,2019-11-28 15:01:11,2019-11-28 15:01:43,32.307s,FAILED
,,,,,,,
Test Cases/RM Full Regression Stage/Pacient - T162269 (banca de kilometri),,Check that tutorial steps at first access after login,,2019-11-28 15:01:44,2019-11-28 15:02:48,1m - 4.936s,FAILED
"startApplication(""C:\Users\Catalin\Desktop\app-regina-maria-v480-debug.apk"", false)",,,,2019-11-28 15:01:44,2019-11-28 15:02:08,23.728s,PASSED
"tap(findTestObject(""Application/RM/T162269/android.widget.TextView0 - Banca de km""), 0)",,,,2019-11-28 15:02:08,2019-11-28 15:02:16,8.696s,PASSED
"tap(findTestObject(""Application/RM/T162269/android.widget.Button0 - Vezi cati km ai in cont""), 0)",,,,2019-11-28 15:02:16,2019-11-28 15:02:48,32.062s,FAILED
,,,,,,,
Test Cases/RM Full Regression Stage/Pacient - T162293 (banca de kilometri) - error,,Check if the CallCenter button is redirecting the user to the phonebook with that number,,2019-11-28 15:02:48,2019-11-28 15:03:51,1m - 2.752s,FAILED
"startApplication(""C:\Users\Catalin\Desktop\app-regina-maria-v480-debug.apk"", true)",,,,2019-11-28 15:02:49,2019-11-28 15:03:27,37.729s,PASSED
"tap(findTestObject(""Application/RM/T162293/android.widget.ImageButton0 (4)""), 0)",,,,2019-11-28 15:03:27,2019-11-28 15:03:29,2.723s,PASSED
"setText(findTestObject(""Application/RM/T162293/android.widget.EditText0 (2)""), ""catalin.it86@gmail.com"", 0)",,,,2019-11-28 15:03:29,2019-11-28 15:03:31,1.351s,PASSED
"setText(findTestObject(""Application/RM/T162293/android.widget.EditText0 (3)""), ""123456.Abc"", 0)",,,,2019-11-28 15:03:31,2019-11-28 15:03:32,1.621s,PASSED
"tap(findTestObject(""Application/RM/T162293/android.widget.Button0 - Intra in cont (1)""), 0)",,,,2019-11-28 15:03:32,2019-11-28 15:03:36,3.314s,PASSED
"tap(findTestObject(""Application/RM/T162293/android.widget.ImageButton0 (5)""), 0)",,,,2019-11-28 15:03:36,2019-11-28 15:03:42,6.648s,PASSED
"tap(findTestObject(""Application/RM/T162293/android.widget.TextView0 - Banca de km (1)""), 0)",,,,2019-11-28 15:03:42,2019-11-28 15:03:45,3.159s,PASSED
"tap(findTestObject(""Application/RM/T162293/android.widget.TextView0 - Ce servicii poti obtine""), 0)",,,,2019-11-28 15:03:45,2019-11-28 15:03:47,1.287s,PASSED
"tap(findTestObject(""Application/RM/T162293/android.widget.ImageButton0 (6)""), 0)",,,,2019-11-28 15:03:47,2019-11-28 15:03:49,2.089s,PASSED
"moreInfo = findTestObject(""Object Repository/Application/RM/T162293/android.widget.ImageButton0Back"")",,,,2019-11-28 15:03:49,2019-11-28 15:03:49,0.074s,PASSED
"tapAtPosition(getElementLeftPosition(moreInfo, 0) + 400, getElementTopPosition(moreInfo, 0) - 400)",,,,2019-11-28 15:03:49,2019-11-28 15:03:51,2.368s,FAILED
