Suite/Test/Step Name,Browser,Description,Tag,Start time,End time,Duration,Status
RM_Analize,,,,2019-11-25 13:03:53,2019-11-25 13:06:31,2m - 38.530s,INCOMPLETE
,,,,,,,
Test Cases/RM Full Regression Stage/Pacient - T162297 (analize),,"Check if feedback can be left for ""Consultatii""",,2019-11-25 13:03:53,2019-11-25 13:05:20,1m - 27.119s,PASSED
"startApplication(""C:\Users\Catalin\Desktop\app-regina-maria-v480-debug.apk"", true)",,,,2019-11-25 13:03:54,2019-11-25 13:04:37,42.851s,PASSED
"tap(findTestObject(""Application/RM/T162297/android.widget.ImageButton0""), 0)",,,,2019-11-25 13:04:37,2019-11-25 13:04:40,3.071s,PASSED
"setText(findTestObject(""Application/RM/T162297/android.widget.EditText0""), ""catalin.it86@gmail.com"", 0)",,,,2019-11-25 13:04:40,2019-11-25 13:04:41,1.451s,PASSED
"setText(findTestObject(""Application/RM/T162297/android.widget.EditText0 (1)""), ""123456.Abc"", 0)",,,,2019-11-25 13:04:41,2019-11-25 13:04:43,1.599s,PASSED
"tap(findTestObject(""Application/RM/T162297/android.widget.Button0 - Intra in cont""), 0)",,,,2019-11-25 13:04:43,2019-11-25 13:04:46,3.291s,PASSED
"tap(findTestObject(""Application/RM/T162297/android.widget.ImageButton0 (1)""), 0)",,,,2019-11-25 13:04:46,2019-11-25 13:04:52,6.100s,PASSED
"tap(findTestObject(""Application/RM/T162297/android.widget.TextView0 - Dosar""), 0)",,,,2019-11-25 13:04:52,2019-11-25 13:04:58,5.702s,PASSED
"tap(findTestObject(""Application/RM/T162297/android.widget.TextView0 - Analize""), 0)",,,,2019-11-25 13:04:58,2019-11-25 13:05:02,3.798s,PASSED
"tap(findTestObject(""Application/RM/T162297/android.widget.TextView0 - cod proba""), 0)",,,,2019-11-25 13:05:02,2019-11-25 13:05:04,2.736s,PASSED
"tap(findTestObject(""Application/RM/T162297/android.widget.TextView0 - Vezi evolutie""), 0)",,,,2019-11-25 13:05:04,2019-11-25 13:05:18,13.442s,PASSED
closeApplication(),,,,2019-11-25 13:05:18,2019-11-25 13:05:20,2.519s,PASSED
,,,,,,,
Test Cases/RM Full Regression Stage/Pacient - T162364 (analize),,Check that a pop-up must be present if the user selects the same start and end date in Consultatii/Analize,,2019-11-25 13:05:20,2019-11-25 13:06:31,1m - 10.937s,FAILED
"startApplication(""C:\Users\Catalin\Downloads\app-regina-maria-v480-debug.apk"", false)",,,,2019-11-25 13:05:21,2019-11-25 13:05:59,38.481s,PASSED
"tap(findTestObject(""Application/RM/T162364/android.widget.TextView0 - Dosar""), 0)",,,,2019-11-25 13:05:59,2019-11-25 13:06:31,32.047s,FAILED
