Suite/Test/Step Name,Browser,Description,Tag,Start time,End time,Duration,Status
RM_HamburgerMenu,,,,2019-11-27 17:16:16,2019-11-27 17:19:37,3m - 21.314s,INCOMPLETE
,,,,,,,
Test Cases/RM Full Regression Stage/Pacient - T162246 (Hamburger menu),,Check Hamburger menu items for functionality,,2019-11-27 17:16:16,2019-11-27 17:17:26,1m - 9.686s,FAILED
"startApplication(""C:\Users\Catalin\Downloads\app-regina-maria-v480-debug.apk"", false)",,,,2019-11-27 17:16:16,2019-11-27 17:16:45,28.658s,PASSED
"tap(findTestObject(""Application/RM/T162246/android.widget.ImageButton0""), 0)",,,,2019-11-27 17:16:45,2019-11-27 17:16:48,2.724s,PASSED
"setText(findTestObject(""Application/RM/T162246/android.widget.EditText0""), ""catalin.it86@gmail.com"", 0)",,,,2019-11-27 17:16:48,2019-11-27 17:16:49,1.158s,PASSED
"setText(findTestObject(""Application/RM/T162246/android.widget.EditText0 (1)""), ""123456.Abc"", 0)",,,,2019-11-27 17:16:49,2019-11-27 17:16:51,1.573s,PASSED
"tap(findTestObject(""Application/RM/T162246/android.widget.Button0 - Intra in cont""), 0)",,,,2019-11-27 17:16:51,2019-11-27 17:16:54,3.316s,PASSED
"tap(findTestObject(""Application/RM/T162246/android.widget.CheckedTextView0 - Locatii""), 0)",,,,2019-11-27 17:16:54,2019-11-27 17:17:26,31.987s,FAILED
,,,,,,,
Test Cases/RM Full Regression Stage/Pacient - T162300 (Hamburger menu),,Check if prober bare code is present in Card de membru,,2019-11-27 17:17:26,2019-11-27 17:17:51,25.546s,PASSED
"startApplication(""C:\Users\Catalin\Downloads\app-regina-maria-v480-debug.apk"", false)",,,,2019-11-27 17:17:26,2019-11-27 17:17:42,15.660s,PASSED
"tap(findTestObject(""Application/RM/T162300/android.widget.ImageButton0 (1)""), 0)",,,,2019-11-27 17:17:42,2019-11-27 17:17:49,7.538s,PASSED
"tap(findTestObject(""Application/RM/T162300/android.widget.CheckedTextView0 - Card de membru""), 0)",,,,2019-11-27 17:17:49,2019-11-27 17:17:51,1.656s,PASSED
closeApplication(),,,,2019-11-27 17:17:51,2019-11-27 17:17:51,0.451s,PASSED
,,,,,,,
Test Cases/RM Full Regression Stage/Pacient - T162320 (hamburger menu),,Check that the email for every form is online@reginamaria.ro,,2019-11-27 17:17:51,2019-11-27 17:18:23,31.094s,PASSED
"startApplication(""C:\Users\Catalin\Desktop\app-regina-maria-v480-debug.apk"", false)",,,,2019-11-27 17:17:52,2019-11-27 17:18:08,16.402s,PASSED
"tap(findTestObject(""Application/RM/T162320/android.widget.ImageButton0 (2)""), 0)",,,,2019-11-27 17:18:08,2019-11-27 17:18:15,7.314s,PASSED
"tap(findTestObject(""Application/RM/T162320/android.widget.FrameLayout0""), 0)",,,,2019-11-27 17:18:15,2019-11-27 17:18:21,5.223s,PASSED
"tap(findTestObject(""Application/RM/T162320/android.widget.ImageView0""), 0)",,,,2019-11-27 17:18:21,2019-11-27 17:18:22,1.406s,PASSED
hideKeyboard(),,,,2019-11-27 17:18:22,2019-11-27 17:18:22,0.338s,PASSED
closeApplication(),,,,2019-11-27 17:18:22,2019-11-27 17:18:23,0.264s,PASSED
,,,,,,,
Test Cases/RM Full Regression Stage/Pacient - T162358 (Hamburger menu),,Check that the new partner is present in the partners area (card de membru),,2019-11-27 17:18:23,2019-11-27 17:19:37,1m - 14.769s,FAILED
"startApplication(""C:\Users\Catalin\Downloads\app-regina-maria-v480-debug.apk"", true)",,,,2019-11-27 17:18:23,2019-11-27 17:18:55,32.538s,PASSED
"tap(findTestObject(""Application/RM/T162358/android.widget.ImageButton0""), 0)",,,,2019-11-27 17:18:55,2019-11-27 17:18:58,2.563s,PASSED
"setText(findTestObject(""Application/RM/T162358/android.widget.EditText0""), ""catalin.it86@gmail.com"", 0)",,,,2019-11-27 17:18:58,2019-11-27 17:18:59,1.139s,PASSED
"setText(findTestObject(""Application/RM/T162358/android.widget.EditText0 (1)""), ""123456.Abc"", 0)",,,,2019-11-27 17:18:59,2019-11-27 17:19:01,2.014s,PASSED
"tap(findTestObject(""Application/RM/T162358/android.widget.Button0 - Intra in cont""), 0)",,,,2019-11-27 17:19:01,2019-11-27 17:19:04,2.987s,PASSED
"tap(findTestObject(""Application/RM/T162358/android.widget.ImageButton0 (1)""), 0)",,,,2019-11-27 17:19:04,2019-11-27 17:19:05,1.246s,PASSED
"tap(findTestObject(""Application/RM/T162358/android.widget.CheckedTextView0 - Card de membru""), 0)",,,,2019-11-27 17:19:05,2019-11-27 17:19:37,32.130s,FAILED
